417164 354223 449
15950 305768 443
481981 778159 509
699517 13705 509
509749 46938 449
380984 93354 443
212997 97227 383
430634 482215 444
332923 148118 443
339417 81998 443
832059 39742 509
790806 8750 509
428041 403528 449
798473 683749 504
4066 28233 308
214303 935433 525
896659 744456 525
241202 378640 441
522615 454923 470
906548 32365 525
501860 801737 509
125718 229062 386
898963 70557 525
711276 746091 424
218674 564897 470
828088 564938 509
118844 133099 344
87892 546884 470
50832 886365 525
230633 54897 443
428802 959139 525
504535 325461 449
703595 745736 504
218305 226210 368
714863 639057 504
772778 730927 468
440794 412701 418
474193 853962 525
483257 699673 509
600053 216135 470
264571 942345 525
295277 383414 441
75445 383169 443
444502 126276 449
269534 189339 443
695376 212540 509
148478 199911 383
52205 852072 525
459851 270509 449
78282 688918 509
423770 365265 449
419846 378769 449
777965 408243 509
232731 261222 381
107917 346988 443
991560 886691 507
803537 286838 509
784309 878981 525
670006 228811 509
519461 453744 470
418149 729042 509
180488 566626 470
443157 232692 449
418698 417213 343
17405 11184 276
106131 441174 449
376448 40181 443
819942 668617 504
448424 566877 470
929838 556340 525
913864 435604 525
957235 717402 525
236646 741544 509
110588 420856 449
970354 144254 525
874599 388503 525
387500 569291 470
469333 830656 509
801982 402235 509
247869 819386 509
927622 354000 525
774764 304071 509
908384 108912 525
486892 356808 449
675788 416731 509
427352 103858 449
366539 898791 525
335464 603184 470
640335 960255 525
538244 124894 470
618713 412843 470
513396 6213 470
496338 496933 258
351074 298320 441
899167 598942 525
631910 826790 504
467146 920878 525
645065 375531 509
29790 131957 354
246543 219783 443
62892 188100 383
323640 943634 525
86891 173308 383
61023 727226 509
647767 599266 509
852119 266481 525
526313 879720 525
786897 22651 509
890857 137971 525
835174 304230 509
251118 467084 449
131020 718263 509
387963 290289 441
607998 931956 525
936449 368746 525
151739 999341 525
556845 989582 525
457180 157940 449
162890 518203 470
399370 324862 441
117469 765694 509
591342 643782 509
159619 378239 443
180637 50476 383
30415 15812 308
354705 281532 441
482895 999928 525
513999 385062 470
290217 121998 443
317019 226667 443
490743 468757 413
740212 561792 509
458340 197392 449
233936 135434 443
229799 633306 509
974499 347268 525
399000 565841 470
505254 558618 470
458285 685890 509
123298 2904 354
701701 478003 509
284435 698801 509
992135 798433 525
83863 282353 443
434635 400881 449
23224 439582 449
383843 277640 441
515578 356387 470
989235 749514 525
6025 219035 386
382820 980524 525
80507 296024 443
60570 99965 351
368846 33059 443
785854 492143 509
35962 1761 324
484350 834600 509
700561 990690 525
633034 784423 504
273043 67669 443
699509 810470 504
21456 597556 470
602314 537033 452
953942 105754 525
286547 474171 449
838992 183571 525
968899 919498 507
993798 29470 525
533667 362644 470
62528 319522 443
368992 612694 470
835486 367546 509
447294 536047 470
358236 594532 470
834674 145483 509
176406 48388 383
470157 197861 449
645943 72471 509
734893 114090 509
178225 535645 470
102466 531421 470
233420 71365 443
450920 227219 449
100834 498791 449
589862 677566 509
818312 473058 509
804464 168003 509
840604 251758 525
704049 198840 509
360495 52929 443
344323 536900 470
101316 814479 509
248965 261464 363
401155 983857 525
889757 93584 525
33707 992222 525
625004 267127 470
63588 590128 470
494345 678625 509
88920 598411 470
870395 421436 525
71470 674859 509
589439 912073 525
440822 807692 509
625117 801316 509
860620 483644 525
852420 961936 507
298124 101385 443
737604 213483 509
599446 627361 509
307066 633153 509
619584 932069 525
414484 197376 449
522198 423033 470
876000 125322 525
21444 260601 443
546757 92913 470
935459 136196 525
519190 890485 525
943888 144308 525
206006 318713 443
627951 58426 509
280649 440279 449
674014 532457 509
653761 273461 509
159819 475031 449
420818 293607 449
407101 835301 509
490982 443503 444
258334 881186 525
568824 793981 509
141787 115581 344
401099 77247 443
765981 920288 525
481936 224074 449
578800 687942 509
542786 720956 509
260572 337640 407
161235 934586 525
870096 329201 525
208047 544119 470
804231 143069 509
837725 725536 468
978369 842911 507
683243 750907 504
724098 252067 509
59093 865884 525
881852 460191 525
457335 162038 449
