44080 95393 351
96808 70753 351
97570 64090 351
71015 91177 351
19038 17669 279
57876 90060 351
28066 59139 340
15801 27249 308
24931 12596 282
97908 81769 333
28535 77689 351
45046 13451 324
4863 17206 276
14794 35668 324
39691 91683 351
46075 97015 351
73755 38339 340
36128 86131 351
63165 61804 317
2589 13220 268
57047 79661 351
32438 54649 340
89983 7448 351
51556 33348 324
48230 3761 324
33728 3777 308
26435 50297 324
40328 61514 340
21449 31929 308
74873 90583 351
98846 27264 351
85558 86822 302
84606 95546 333
71442 61130 330
29619 48193 324
74335 11594 340
14676 54461 340
15445 19037 279
8000 2509 262
53649 70130 335
48337 42872 314
6541 4712 262
10492 66290 340
35397 85071 351
91195 45200 351
5481 55157 340
4397 14946 276
70246 82912 351
16673 48442 324
95888 22371 351
85620 93828 333
33084 11697 308
64992 77978 351
16054 4955 276
51150 15068 324
44533 46901 314
75151 58777 335
29724 77852 351
92857 87196 333
36492 41008 306
33642 96163 351
39968 25711 324
82868 16009 351
67602 56857 335
56660 36026 340
72105 2092 340
27190 15881 308
862 96116 351
22300 41833 324
66130 78055 351
22959 89815 351
72696 27542 340
35498 34089 311
83917 89603 333
79880 36297 351
74791 64258 325
94145 60242 351
71531 88659 351
62601 72164 330
83320 63826 351
79226 21198 351
68593 93802 351
87346 34578 351
80454 36063 351
11389 95454 351
52971 75986 335
69901 70966 312
56303 71887 335
95664 37983 351
81485 36848 351
98727 90643 333
96119 51557 351
10228 84262 351
24264 68815 340
26935 70914 340
68184 78576 351
47528 56721 340
24792 23222 282
74032 72292 294
96198 58030 351
6905 7047 257
24704 73237 340
71472 75819 325
46639 31408 324
23390 3141 279
10536 89522 351
93648 16983 351
6668 79644 351
54808 71841 335
27158 25087 308
4237 62676 340
78505 23197 351
2972 44196 324
43271 64982 340
18651 20116 274
39462 3494 324
74095 355 340
96643 15941 351
15213 58080 340
61571 41182 340
75064 91050 351
3704 29542 308
55385 45103 340
6938 67378 340
19558 93465 351
55064 28620 340
51087 5129 324
24347 15573 282
33079 80859 351
44277 44944 270
68097 39887 340
7133 26701 308
19642 24863 282
49324 31953 324
98529 28413 351
68907 71469 325
52748 59814 322
12897 30909 308
5945 90519 351
93952 10050 351
26883 70639 340
55891 18887 340
89554 96942 333
9767 55706 340
84212 76151 351
62856 24660 340
23179 93005 351
26542 91273 351
91672 31131 351
54586 56017 260
8862 92062 351
65438 35013 340
34183 71562 340
4253 93149 351
40447 55052 340
21821 37515 324
86122 93591 333
12823 39641 324
43540 85325 351
21335 1120 279
81335 1548 351
99941 28168 351
70910 73074 325
39925 87305 351
45980 18826 324
11684 33128 308
4837 91060 351
35314 95589 351
6638 94225 351
61231 72655 330
83487 5441 351
24669 42016 324
28963 45255 324
52524 19607 324
69244 98624 351
95748 41799 351
41594 71360 340
90697 42969 351
80562 25054 351
48580 8000 324
43856 48054 314
90867 63588 351
92319 16007 351
69773 40324 340
29794 91981 351
99606 60130 351
90967 76835 351
65605 69102 312
65832 6738 340
35134 77452 351
45815 79144 351
97213 90060 333
6013 64379 340
435 19495 279
38447 24819 324
57191 12083 340
69116 42753 340
41154 15554 324
50157 3415 324
15135 87589 351
8565 98831 351
53851 51206 340
51098 68253 340
44217 52535 340
19312 95472 351
89192 80147 333
23278 16194 279
57597 69149 335
81539 7618 351
88824 50340 351
6341 88900 351
6661 13939 276
55355 98418 351
41085 47376 314
95029 31797 351
87332 11306 351
74739 69344 325
64413 21656 340
31167 61047 340
99149 12715 351
35436 7638 311
33145 93157 351
66655 79063 351
69860 9456 340
18175 96321 351
46194 24265 324
71100 8431 340
76065 40021 340
26915 88568 351
73965 10977 340
17411 5367 276
99572 84271 333
97188 97805 297
28579 40911 324
42925 60387 340
70281 93514 351
32460 10413 308
76195 92519 351
94710 23364 351
63108 91218 351
78666 58404 351
39147 32878 324
76231 33951 340
80071 48299 351
48219 74131 340
44118 65086 340
19381 98604 351
93197 26358 351
49200 40934 314
90769 51344 351
15823 68653 340
62469 54394 335
78670 55378 351
88581 36217 351
35780 11466 324
14431 17480 271
85635 89521 333
75059 83988 351
74709 44480 340
5772 62541 340
92514 84407 333
23403 78178 351
88484 88691 271
40819 8887 324
92672 81209 333
80462 78710 338
15418 21576 279
83887 67674 351
83914 22832 351
29549 34857 311
86916 71825 351
47501 37367 314
60442 13863 340
25855 26051 233
20984 38186 324
2580 87468 351
37333 31881 324
95938 39823 351
85506 26011 351
48105 89003 351
1785 62833 340
83931 5729 351
41406 72187 340
39059 19365 324
45158 79572 351
43989 91916 351
43632 4596 324
20181 838 279
83731 14800 351
72356 55343 335
25905 10947 282
71748 45895 340
73128 53377 335
9713 95770 351
36107 14644 324
79011 29584 351
17215 3628 276
72558 47480 340
17251 36267 324
90289 24406 351
